{"hits":{"hits":[{"links":{"json":"https://inspirehep.net/api/institutions/903070?format=json"},"metadata":{"addresses":[{"cities":["Nsukka"],"country_code":"NG","postal_address":["Univ. of Nigeria","Dept. of Physics & Astronomy","Nsukka, Nigeria"],"country":"Nigeria"}],"number_of_papers":81,"self":{"$ref":"https://inspirehep.net/api/institutions/903070"},"$schema":"https://inspirehep.net/schemas/records/institutions.json","legacy_ICN":"Nigeria U.","extra_words":["Nsukka, Nigeria U.","phys","department","University"],"control_number":903070,"legacy_version":"20130819034051.0","institution_type":["University"],"legacy_creation_date":"1990-07-17","external_system_identifiers":[{"value":"INST-4804","schema":"SPIRES"}]},"id":"903070","created":"1990-07-17T00:00:00+00:00","updated":"2021-06-26T06:21:14.056314+00:00"},{"links":{"json":"https://inspirehep.net/api/institutions/912136?format=json"},"metadata":{"addresses":[{"country_code":"NG","postal_address":["Nigeria"],"country":"Nigeria"}],"number_of_papers":37,"self":{"$ref":"https://inspirehep.net/api/institutions/912136"},"$schema":"https://inspirehep.net/schemas/records/institutions.json","legacy_ICN":"Unlisted, NG","control_number":912136,"legacy_version":"20130819034830.0","legacy_creation_date":"2010-07-09","external_system_identifiers":[{"value":"INST-111970","schema":"SPIRES"}]},"id":"912136","created":"2010-07-09T00:00:00+00:00","updated":"2021-06-26T07:49:54.380988+00:00"},{"links":{"json":"https://inspirehep.net/api/institutions/1240982?format=json"},"metadata":{"addresses":[{"cities":["Yola"],"latitude":9.2034963,"longitude":12.4953899,"country_code":"NG","postal_address":["Lamido Zubairu Way","Yola Township By-Pass","PMB 2250, Yola Adamawa State, Nigeria"],"country":"Nigeria"}],"number_of_papers":1,"self":{"$ref":"https://inspirehep.net/api/institutions/1240982"},"urls":[{"value":"http://www.abti-american.edu.ng/"}],"$schema":"https://inspirehep.net/schemas/records/institutions.json","legacy_ICN":"American U. Yola,  Nigeria","control_number":1240982,"legacy_version":"20161019033409.0","legacy_creation_date":"2008-10-29","external_system_identifiers":[{"value":"INST-102431","schema":"SPIRES"}]},"id":"1240982","created":"2008-10-29T00:00:00+00:00","updated":"2021-06-26T04:07:12.316071+00:00"},{"links":{"json":"https://inspirehep.net/api/institutions/903414?format=json"},"metadata":{"addresses":[{"cities":["Jos"],"country_code":"NG","postal_address":["Univ. of Jos","Physics Dept.","Jos, Nigeria"],"country":"Nigeria"}],"number_of_papers":3,"self":{"$ref":"https://inspirehep.net/api/institutions/903414"},"$schema":"https://inspirehep.net/schemas/records/institutions.json","legacy_ICN":"Jos U.","extra_words":["phys","department","University"],"control_number":903414,"legacy_version":"20130819034106.0","institution_type":["University"],"legacy_creation_date":"1990-07-17","external_system_identifiers":[{"value":"INST-10332","schema":"SPIRES"}]},"id":"903414","created":"1990-07-17T00:00:00+00:00","updated":"2021-06-25T22:41:30.372873+00:00"},{"links":{"json":"https://inspirehep.net/api/institutions/906068?format=json"},"metadata":{"addresses":[{"cities":["Maiduguri"],"country_code":"NG","postal_address":["Univ. of Maiduguri","Dept. of Physics","Maiduguri, Nigeria"],"country":"Nigeria"}],"number_of_papers":1,"self":{"$ref":"https://inspirehep.net/api/institutions/906068"},"$schema":"https://inspirehep.net/schemas/records/institutions.json","legacy_ICN":"Maiduguri U.","extra_words":["phys","department","University"],"control_number":906068,"legacy_version":"20130819034249.0","institution_type":["University"],"legacy_creation_date":"1992-01-28","external_system_identifiers":[{"value":"INST-42781","schema":"SPIRES"}]},"id":"906068","created":"1992-01-28T00:00:00+00:00","updated":"2021-06-25T22:41:51.021741+00:00"},{"links":{"json":"https://inspirehep.net/api/institutions/909229?format=json"},"metadata":{"addresses":[{"cities":["Abeokuta"],"country_code":"NG","postal_address":["University of Agriculture","PMB 2240","Abeokuta, Ogun State","NIGERIA"],"country":"Nigeria"}],"number_of_papers":2,"self":{"$ref":"https://inspirehep.net/api/institutions/909229"},"$schema":"https://inspirehep.net/schemas/records/institutions.json","legacy_ICN":"Agriculture U., Abeokuta","extra_words":["Univ."],"control_number":909229,"legacy_version":"20161012160323.0","institution_type":["University"],"legacy_creation_date":"2003-07-21","external_system_identifiers":[{"value":"INST-79367","schema":"SPIRES"}]},"id":"909229","created":"2003-07-21T00:00:00+00:00","updated":"2021-06-25T16:39:41.836543+00:00"},{"links":{"json":"https://inspirehep.net/api/institutions/907919?format=json"},"metadata":{"addresses":[{"cities":["Awka"],"country_code":"NG","postal_address":["Nnamdi Azikiwe University","P.M.B. 5025","Awka, Anambra State","Nigeria"],"country":"Nigeria"}],"number_of_papers":7,"self":{"$ref":"https://inspirehep.net/api/institutions/907919"},"$schema":"https://inspirehep.net/schemas/records/institutions.json","legacy_ICN":"Nnamdi Azikiwe U.","extra_words":["Univ."],"control_number":907919,"legacy_version":"20130819034525.0","institution_type":["University"],"legacy_creation_date":"1999-09-15","external_system_identifiers":[{"value":"INST-64556","schema":"SPIRES"}]},"id":"907919","created":"1999-09-15T00:00:00+00:00","updated":"2021-06-26T07:04:03.428419+00:00"},{"links":{"json":"https://inspirehep.net/api/institutions/910281?format=json"},"metadata":{"addresses":[{"cities":["Akoka"],"country_code":"NG","postal_address":["University of Lagos","Akoka, NIGERIA"],"country":"Nigeria"}],"number_of_papers":4,"self":{"$ref":"https://inspirehep.net/api/institutions/910281"},"urls":[{"value":"http://www.unilag.edu/"}],"$schema":"https://inspirehep.net/schemas/records/institutions.json","legacy_ICN":"Lagos U.","extra_words":["Univ."],"control_number":910281,"legacy_version":"20130819034737.0","institution_type":["University"],"legacy_creation_date":"2005-06-05","external_system_identifiers":[{"value":"INST-90697","schema":"SPIRES"},{"value":"https://ror.org/05rk03822","schema":"ROR"}]},"id":"910281","created":"2005-06-05T00:00:00+00:00","updated":"2025-03-12T13:00:14.367243+00:00"},{"links":{"json":"https://inspirehep.net/api/institutions/903710?format=json"},"metadata":{"addresses":[{"cities":["Ibadan"],"country_code":"NG","postal_address":["Univ. of Ibadan","Dept. of Physics","Ibadan, Nigeria"],"country":"Nigeria"}],"number_of_papers":21,"self":{"$ref":"https://inspirehep.net/api/institutions/903710"},"$schema":"https://inspirehep.net/schemas/records/institutions.json","legacy_ICN":"Ibadan U.","extra_words":["phys","department","University"],"control_number":903710,"legacy_version":"20130819034117.0","institution_type":["University"],"legacy_creation_date":"1990-07-17","external_system_identifiers":[{"value":"INST-13625","schema":"SPIRES"}]},"id":"903710","created":"1990-07-17T00:00:00+00:00","updated":"2021-06-25T22:41:27.333271+00:00"},{"links":{"json":"https://inspirehep.net/api/institutions/911985?format=json"},"metadata":{"addresses":[{"cities":["Ilorin"],"country_code":"NG","postal_address":["University of Ilorin","P.M.B 1515","Ilorin, Kwara State","Nigeria"],"country":"Nigeria"}],"number_of_papers":16,"self":{"$ref":"https://inspirehep.net/api/institutions/911985"},"urls":[{"value":"http://www.unilorin.edu.ng"}],"$schema":"https://inspirehep.net/schemas/records/institutions.json","legacy_ICN":"Ilorin U.","control_number":911985,"legacy_version":"20130819034827.0","institution_type":["University"],"legacy_creation_date":"2010-06-01","external_system_identifiers":[{"value":"INST-109380","schema":"SPIRES"}]},"id":"911985","created":"2010-06-01T00:00:00+00:00","updated":"2021-06-25T16:36:36.790270+00:00"}],"total":21},"links":{"self":"https://inspirehep.net/api/institutions/?q=nigeria&size=10&page=1","next":"https://inspirehep.net/api/institutions/?q=nigeria&size=10&page=2","json":"https://inspirehep.net/api/institutions/?q=nigeria&size=10&page=1&format=json"}}
